Mammals 4 trait states
…
ageM <- max(nodeHeights(mtrees_M[[1]])) # root age: 217.84 Ma years old

changes_table_Mammals <- changes_table_Mammals %>% 
  mutate(time_new = ageM - time) %>%  # Time before present [Ma]
  mutate(time_new = round(time_new,5)) %>% 
  select(-time)

changes_table_Mammals %>% 
  group_by(N_sim, transition) %>% 
  summarise(N = n(), avg_time = mean(time_new))

`summarise()` has grouped output by 'N_sim'. You can override using the
`.groups` argument.

# A tibble: 962 × 4
# Groups:   N_sim [100]
   N_sim transition                         N avg_time
   <int> <chr>                          <int>    <dbl>
 1     1 herb_large->herb_small            19     10.9
 2     1 herb_large->non_herb_large         4     54.4
 3     1 herb_small->herb_large            29     16.9
 4     1 herb_small->non_herb_large         2     11.1
 5     1 herb_small->non_herb_small        93     11.1
 6     1 non_herb_large->herb_large        16     21.7
 7     1 non_herb_large->herb_small         2     11.4
 8     1 non_herb_large->non_herb_small    51     13.1
 9     1 non_herb_small->herb_small       120     12.8
10     1 non_herb_small->non_herb_large    29     11.9
# ℹ 952 more rows

changes_table_Mammals %>% 
  group_by(transition, trans_no) %>% 
  summarise(avg_time=mean(time_new))

`summarise()` has grouped output by 'transition'. You can override using the
`.groups` argument.

# A tibble: 460 × 3
# Groups:   transition [10]
   transition             trans_no avg_time
   <chr>                     <int>    <dbl>
 1 herb_large->herb_small        1    61.3 
 2 herb_large->herb_small        2    32.4 
 3 herb_large->herb_small        3    20.6 
 4 herb_large->herb_small        4    15.3 
 5 herb_large->herb_small        5    11.8 
 6 herb_large->herb_small        6     8.98
 7 herb_large->herb_small        7     7.46
 8 herb_large->herb_small        8     5.64
 9 herb_large->herb_small        9     4.43
10 herb_large->herb_small       10     3.30
# ℹ 450 more rows
…
mean_plotdf$transition <- as.factor(mean_plotdf$transition)

# --------------------------------------- #

plot_df <- changes_table_Mammals %>% 
  mutate(time_rounded = round(time_new, 0)) %>% 
  group_by(transition, time_rounded) %>% summarise(N = n()) %>% 
  distinct() 

`summarise()` has grouped output by 'transition'. You can override using the
`.groups` argument.

plot_df

# A tibble: 1,077 × 3
# Groups:   transition [10]
   transition             time_rounded     N
   <chr>                         <dbl> <int>
 1 herb_large->herb_small            0   276
 2 herb_large->herb_small            1   200
 3 herb_large->herb_small            2   241
 4 herb_large->herb_small            3   120
 5 herb_large->herb_small            4    56
 6 herb_large->herb_small            5    43
 7 herb_large->herb_small            6    30
 8 herb_large->herb_small            7    47
 9 herb_large->herb_small            8    78
10 herb_large->herb_small            9   106
# ℹ 1,067 more rows
…
